Clock/datetest.vcd
$date
	Tue May  6 23:31:53 2025
$end
$version
	Icarus Verilog
$end
$timescale
	1ms
$end
$scope module test $end
$var wire 12 ! year [11:0] $end
$var wire 6 " timer_sec_left [5:0] $end
$var wire 6 # timer_min_left [5:0] $end
$var wire 1 $ timer_buzzer $end
$var wire 6 % sec [5:0] $end
$var wire 4 & month [3:0] $end
$var wire 6 ' min [5:0] $end
$var wire 6 ( hr [5:0] $end
$var wire 5 ) day [4:0] $end
$var wire 1 * alarm_buzzer $end
$var wire 1 + AM_PM $end
$var reg 1 , AM_mode $end
$var reg 1 - add_hour $end
$var reg 1 . add_minute $end
$var reg 1 / clk $end
$var reg 1 0 mode_btn $end
$var reg 1 1 reset $end
$var reg 1 2 set_alarm_btn $end
$var reg 1 3 set_timer_btn $end
$var integer 32 4 i [31:0] $end
$scope module uut $end
$var wire 1 , AM_mode $end
$var wire 1 - add_hour $end
$var wire 1 . add_minute $end
$var wire 1 / clk $end
$var wire 1 0 mode_btn $end
$var wire 1 1 reset $end
$var wire 1 5 set_alarm $end
$var wire 1 2 set_alarm_btn $end
$var wire 1 6 set_timer $end
$var wire 1 3 set_timer_btn $end
$var wire 12 7 year [11:0] $end
$var wire 6 8 timer_sec_left [5:0] $end
$var wire 1 9 timer_mode_active $end
$var wire 6 : timer_min_left [5:0] $end
$var wire 1 $ timer_buzzer $end
$var wire 1 ; time_add_minute $end
$var wire 1 < time_add_hour $end
$var wire 6 = sec [5:0] $end
$var wire 4 > month [3:0] $end
$var wire 6 ? min [5:0] $end
$var wire 1 @ idle_mode_active $end
$var wire 6 A hr [5:0] $end
$var wire 5 B day [4:0] $end
$var wire 1 C alarm_mode_active $end
$var wire 1 * alarm_buzzer $end
$var wire 1 + AM_PM $end
$var reg 6 D alarm_hr [5:0] $end
$var reg 6 E alarm_min [5:0] $end
$var reg 2 F next_state [1:0] $end
$var reg 2 G state [1:0] $end
$var reg 4 H timer_minutes [3:0] $end
$scope module UDC $end
$var wire 1 , AM_mode $end
$var wire 1 < add_hour $end
$var wire 1 ; add_minute $end
$var wire 6 I alarm_hr [5:0] $end
$var wire 6 J alarm_min [5:0] $end
$var wire 1 / clk $end
$var wire 1 1 reset $end
$var wire 1 5 set_alarm $end
$var wire 1 6 set_timer $end
$var wire 4 K timer_minutes [3:0] $end
$var wire 12 L year [11:0] $end
$var wire 6 M timer_sec_left [5:0] $end
$var wire 6 N timer_min_left [5:0] $end
$var wire 1 $ timer_buzzer $end
$var wire 6 O sec [5:0] $end
$var wire 4 P month [3:0] $end
$var wire 6 Q min [5:0] $end
$var wire 6 R hr [5:0] $end
$var wire 5 S day [4:0] $end
$var wire 1 * alarm_buzzer $end
$var wire 1 + AM_PM $end
$scope module am $end
$var wire 6 T alarm_hr [5:0] $end
$var wire 6 U alarm_min [5:0] $end
$var wire 1 / clk $end
$var wire 1 1 reset $end
$var wire 1 5 set_alarm $end
$var wire 6 V curr_sec [5:0] $end
$var wire 6 W curr_min [5:0] $end
$var wire 6 X curr_hr [5:0] $end
$var reg 1 * alarm_buzzer $end
$var reg 6 Y alarm_hr_reg [5:0] $end
$var reg 6 Z alarm_min_reg [5:0] $end
$upscope $end
$scope module tk $end
$var wire 1 , AM_mode $end
$var wire 1 < add_hour $end
$var wire 1 ; add_minute $end
$var wire 1 / clk $end
$var wire 1 1 reset $end
$var reg 1 + AM_PM $end
$var reg 1 [ AM_PM_next $end
$var reg 5 \ day [4:0] $end
$var reg 5 ] day_next [4:0] $end
$var reg 6 ^ hr [5:0] $end
$var reg 6 _ hr_next [5:0] $end
$var reg 6 ` min [5:0] $end
$var reg 6 a min_next [5:0] $end
$var reg 4 b month [3:0] $end
$var reg 4 c month_next [3:0] $end
$var reg 2 d next_state [1:0] $end
$var reg 6 e sec [5:0] $end
$var reg 6 f sec_next [5:0] $end
$var reg 2 g state [1:0] $end
$var reg 12 h year [11:0] $end
$var reg 12 i year_next [11:0] $end
$upscope $end
$scope module tm $end
$var wire 1 / clk $end
$var wire 1 1 reset $end
$var wire 1 6 set_timer $end
$var wire 4 j timer_minutes [3:0] $end
$var wire 6 k timer_sec_left [5:0] $end
$var wire 6 l timer_min_left [5:0] $end
$var reg 1 $ timer_buzzer $end
$var reg 10 m timer_sec_total [9:0] $end
$upscope $end
$upscope $end
$upscope $end
$upscope $end
$enddefinitions $end
#0
$dumpvars
b0 m
b0 l
b0 k
b0 j
b11111100100 i
b11111100100 h
b0 g
b1 f
b0 e
b0 d
b1 c
b1 b
b0 a
b0 `
b1100 _
b1100 ^
b1 ]
b1 \
0[
b0 Z
b0 Y
b1100 X
b0 W
b0 V
b0 U
b0 T
b1 S
b1100 R
b0 Q
b1 P
b0 O
b0 N
b0 M
b11111100100 L
b0 K
b0 J
b0 I
b0 H
b0 G
b0 F
b0 E
b0 D
0C
b1 B
b1100 A
1@
b0 ?
b1 >
b0 =
0<
0;
b0 :
09
b0 8
b11111100100 7
06
05
bx 4
03
02
11
00
0/
0.
0-
1,
0+
0*
b1 )
b1100 (
b0 '
b1 &
b0 %
0$
b0 #
b0 "
b11111100100 !
$end
#500
1/
#1000
0/
#1500
1/
#2000
0/
b0 4
01
#2500
b10 f
b1 %
b1 =
b1 O
b1 V
b1 e
1/
#3000
b1 _
b10 f
1<
0/
1-
#3500
b10 _
b11 f
b1 (
b1 A
b1 R
b1 X
b1 ^
b10 %
b10 =
b10 O
b10 V
b10 e
1/
#4000
b1 _
b11 f
0<
0/
0-
#4500
b100 f
b11 %
b11 =
b11 O
b11 V
b11 e
1/
#5000
b1 a
b100 f
1;
0/
1.
#5500
b10 a
b101 f
b1 '
b1 ?
b1 Q
b1 W
b1 `
b100 %
b100 =
b100 O
b100 V
b100 e
1/
#6000
b1 a
b101 f
0;
0/
b1 4
0.
#6500
b110 f
b101 %
b101 =
b101 O
b101 V
b101 e
1/
#7000
b10 _
b110 f
1<
0/
1-
#7500
b11 _
b111 f
b10 (
b10 A
b10 R
b10 X
b10 ^
b110 %
b110 =
b110 O
b110 V
b110 e
1/
#8000
b10 _
b111 f
0<
0/
0-
#8500
b1000 f
b111 %
b111 =
b111 O
b111 V
b111 e
1/
#9000
b10 a
b1000 f
1;
0/
1.
#9500
b11 a
b1001 f
b10 '
b10 ?
b10 Q
b10 W
b10 `
b1000 %
b1000 =
b1000 O
b1000 V
b1000 e
1/
#10000
b10 a
b1001 f
0;
0/
b10 4
0.
#10500
b1010 f
b1001 %
b1001 =
b1001 O
b1001 V
b1001 e
1/
#11000
b11 _
b1010 f
1<
0/
1-
#11500
b100 _
b1011 f
b11 (
b11 A
b11 R
b11 X
b11 ^
b1010 %
b1010 =
b1010 O
b1010 V
b1010 e
1/
#12000
b11 _
b1011 f
0<
0/
0-
#12500
b1100 f
b1011 %
b1011 =
b1011 O
b1011 V
b1011 e
1/
#13000
b11 a
b1100 f
1;
0/
1.
#13500
b100 a
b1101 f
b11 '
b11 ?
b11 Q
b11 W
b11 `
b1100 %
b1100 =
b1100 O
b1100 V
b1100 e
1/
#14000
b11 a
b1101 f
0;
0/
b11 4
0.
#14500
b1110 f
b1101 %
b1101 =
b1101 O
b1101 V
b1101 e
1/
#15000
b100 _
b1110 f
1<
0/
1-
#15500
b101 _
b1111 f
b100 (
b100 A
b100 R
b100 X
b100 ^
b1110 %
b1110 =
b1110 O
b1110 V
b1110 e
1/
#16000
b100 _
b1111 f
0<
0/
0-
#16500
b10000 f
b1111 %
b1111 =
b1111 O
b1111 V
b1111 e
1/
#17000
b100 a
b10000 f
1;
0/
1.
#17500
b101 a
b10001 f
b100 '
b100 ?
b100 Q
b100 W
b100 `
b10000 %
b10000 =
b10000 O
b10000 V
b10000 e
1/
#18000
b100 a
b10001 f
0;
0/
b100 4
0.
#18500
b10010 f
b10001 %
b10001 =
b10001 O
b10001 V
b10001 e
1/
#19000
b101 _
b10010 f
1<
0/
1-
#19500
b110 _
b10011 f
b101 (
b101 A
b101 R
b101 X
b101 ^
b10010 %
b10010 =
b10010 O
b10010 V
b10010 e
1/
#20000
b101 _
b10011 f
0<
0/
0-
#20500
b10100 f
b10011 %
b10011 =
b10011 O
b10011 V
b10011 e
1/
#21000
b101 a
b10100 f
1;
0/
1.
#21500
b110 a
b10101 f
b101 '
b101 ?
b101 Q
b101 W
b101 `
b10100 %
b10100 =
b10100 O
b10100 V
b10100 e
1/
#22000
b101 a
b10101 f
0;
0/
b101 4
0.
#22500
b10110 f
b10101 %
b10101 =
b10101 O
b10101 V
b10101 e
1/
#23000
b110 _
b10110 f
1<
0/
1-
#23500
b111 _
b10111 f
b110 (
b110 A
b110 R
b110 X
b110 ^
b10110 %
b10110 =
b10110 O
b10110 V
b10110 e
1/
#24000
b110 _
b10111 f
0<
0/
0-
#24500
b11000 f
b10111 %
b10111 =
b10111 O
b10111 V
b10111 e
1/
#25000
b110 a
b11000 f
1;
0/
1.
#25500
b111 a
b11001 f
b110 '
b110 ?
b110 Q
b110 W
b110 `
b11000 %
b11000 =
b11000 O
b11000 V
b11000 e
1/
#26000
b110 a
b11001 f
0;
0/
b110 4
0.
#26500
b11010 f
b11001 %
b11001 =
b11001 O
b11001 V
b11001 e
1/
#27000
b111 _
b11010 f
1<
0/
1-
#27500
b1000 _
b11011 f
b111 (
b111 A
b111 R
b111 X
b111 ^
b11010 %
b11010 =
b11010 O
b11010 V
b11010 e
1/
#28000
b111 _
b11011 f
0<
0/
0-
#28500
b11100 f
b11011 %
b11011 =
b11011 O
b11011 V
b11011 e
1/
#29000
b111 a
b11100 f
1;
0/
1.
#29500
b1000 a
b11101 f
b111 '
b111 ?
b111 Q
b111 W
b111 `
b11100 %
b11100 =
b11100 O
b11100 V
b11100 e
1/
#30000
b111 a
b11101 f
0;
0/
b111 4
0.
#30500
b11110 f
b11101 %
b11101 =
b11101 O
b11101 V
b11101 e
1/
#31000
b1000 _
b11110 f
1<
0/
1-
#31500
b1001 _
b11111 f
b1000 (
b1000 A
b1000 R
b1000 X
b1000 ^
b11110 %
b11110 =
b11110 O
b11110 V
b11110 e
1/
#32000
b1000 _
b11111 f
0<
0/
0-
#32500
b100000 f
b11111 %
b11111 =
b11111 O
b11111 V
b11111 e
1/
#33000
b1000 a
b100000 f
1;
0/
1.
#33500
b1001 a
b100001 f
b1000 '
b1000 ?
b1000 Q
b1000 W
b1000 `
b100000 %
b100000 =
b100000 O
b100000 V
b100000 e
1/
#34000
b1000 a
b100001 f
0;
0/
b1000 4
0.
#34500
b100010 f
b100001 %
b100001 =
b100001 O
b100001 V
b100001 e
1/
#35000
b1001 _
b100010 f
1<
0/
1-
#35500
b1010 _
b100011 f
b1001 (
b1001 A
b1001 R
b1001 X
b1001 ^
b100010 %
b100010 =
b100010 O
b100010 V
b100010 e
1/
#36000
b1001 _
b100011 f
0<
0/
0-
#36500
b100100 f
b100011 %
b100011 =
b100011 O
b100011 V
b100011 e
1/
#37000
b1001 a
b100100 f
1;
0/
1.
#37500
b1010 a
b100101 f
b1001 '
b1001 ?
b1001 Q
b1001 W
b1001 `
b100100 %
b100100 =
b100100 O
b100100 V
b100100 e
1/
#38000
b1001 a
b100101 f
0;
0/
b1001 4
0.
#38500
b100110 f
b100101 %
b100101 =
b100101 O
b100101 V
b100101 e
1/
#39000
b1010 _
b100110 f
1<
0/
1-
#39500
b1011 _
b100111 f
b1010 (
b1010 A
b1010 R
b1010 X
b1010 ^
b100110 %
b100110 =
b100110 O
b100110 V
b100110 e
1/
#40000
b1010 _
b100111 f
0<
0/
0-
#40500
b101000 f
b100111 %
b100111 =
b100111 O
b100111 V
b100111 e
1/
#41000
b1010 a
b101000 f
1;
0/
1.
#41500
b1011 a
b101001 f
b1010 '
b1010 ?
b1010 Q
b1010 W
b1010 `
b101000 %
b101000 =
b101000 O
b101000 V
b101000 e
1/
#42000
b1010 a
b101001 f
0;
0/
b1010 4
0.
#42500
b101010 f
b101001 %
b101001 =
b101001 O
b101001 V
b101001 e
1/
#43000
b1011 _
b101010 f
1<
0/
1-
#43500
1[
b1100 _
b101011 f
b1011 (
b1011 A
b1011 R
b1011 X
b1011 ^
b101010 %
b101010 =
b101010 O
b101010 V
b101010 e
1/
#44000
0[
b1011 _
b101011 f
0<
0/
0-
#44500
b101100 f
b101011 %
b101011 =
b101011 O
b101011 V
b101011 e
1/
#45000
b1011 a
b101100 f
1;
0/
1.
#45500
b1100 a
b101101 f
b1011 '
b1011 ?
b1011 Q
b1011 W
b1011 `
b101100 %
b101100 =
b101100 O
b101100 V
b101100 e
1/
#46000
b1011 a
b101101 f
0;
0/
b1011 4
0.
#46500
b101110 f
b101101 %
b101101 =
b101101 O
b101101 V
b101101 e
1/
#47000
1[
b1100 _
b101110 f
1<
0/
1-
#47500
b1 _
b101111 f
1+
b1100 (
b1100 A
b1100 R
b1100 X
b1100 ^
b101110 %
b101110 =
b101110 O
b101110 V
b101110 e
1/
#48000
b1100 _
b101111 f
0<
0/
0-
#48500
b110000 f
b101111 %
b101111 =
b101111 O
b101111 V
b101111 e
1/
#49000
b1100 a
b110000 f
1;
0/
1.
#49500
b1101 a
b110001 f
b1100 '
b1100 ?
b1100 Q
b1100 W
b1100 `
b110000 %
b110000 =
b110000 O
b110000 V
b110000 e
1/
#50000
b1100 a
b110001 f
0;
0/
b1100 4
0.
#50500
b110010 f
b110001 %
b110001 =
b110001 O
b110001 V
b110001 e
1/
#51000
b1 _
b110010 f
1<
0/
1-
#51500
b10 _
b110011 f
b1 (
b1 A
b1 R
b1 X
b1 ^
b110010 %
b110010 =
b110010 O
b110010 V
b110010 e
1/
#52000
b1 _
b110011 f
0<
0/
0-
#52500
b110100 f
b110011 %
b110011 =
b110011 O
b110011 V
b110011 e
1/
#53000
b1101 a
b110100 f
1;
0/
1.
#53500
b1110 a
b110101 f
b1101 '
b1101 ?
b1101 Q
b1101 W
b1101 `
b110100 %
b110100 =
b110100 O
b110100 V
b110100 e
1/
#54000
b1101 a
b110101 f
0;
0/
b1101 4
0.
#54500
b110110 f
b110101 %
b110101 =
b110101 O
b110101 V
b110101 e
1/
#55000
b10 _
b110110 f
1<
0/
1-
#55500
b11 _
b110111 f
b10 (
b10 A
b10 R
b10 X
b10 ^
b110110 %
b110110 =
b110110 O
b110110 V
b110110 e
1/
#56000
b10 _
b110111 f
0<
0/
0-
#56500
b111000 f
b110111 %
b110111 =
b110111 O
b110111 V
b110111 e
1/
#57000
b1110 a
b111000 f
1;
0/
1.
#57500
b1111 a
b111001 f
b1110 '
b1110 ?
b1110 Q
b1110 W
b1110 `
b111000 %
b111000 =
b111000 O
b111000 V
b111000 e
1/
#58000
b1110 a
b111001 f
0;
0/
b1110 4
0.
#58500
b111010 f
b111001 %
b111001 =
b111001 O
b111001 V
b111001 e
1/
#59000
b11 _
b111010 f
1<
0/
1-
#59500
b100 _
b111011 f
b11 (
b11 A
b11 R
b11 X
b11 ^
b111010 %
b111010 =
b111010 O
b111010 V
b111010 e
1/
#60000
b11 _
b111011 f
0<
0/
0-
#60500
b1 d
b0 f
b111011 %
b111011 =
b111011 O
b111011 V
b111011 e
1/
#61000
b1111 a
b0 f
b1 d
1;
0/
1.
#61500
b0 d
b10000 a
b1111 '
b1111 ?
b1111 Q
b1111 W
b1111 `
b0 %
b0 =
b0 O
b0 V
b0 e
b1 g
1/
#62000
b10000 a
b0 d
0;
0/
b1111 4
0.
#62500
b1 f
b10000 '
b10000 ?
b10000 Q
b10000 W
b10000 `
b0 g
1/
#63000
b100 _
b1 f
1<
0/
1-
#63500
b101 _
b10 f
b100 (
b100 A
b100 R
b100 X
b100 ^
b1 %
b1 =
b1 O
b1 V
b1 e
1/
#64000
b100 _
b10 f
0<
0/
0-
#64500
b11 f
b10 %
b10 =
b10 O
b10 V
b10 e
1/
#65000
b10001 a
b11 f
1;
0/
1.
#65500
b10010 a
b100 f
b10001 '
b10001 ?
b10001 Q
b10001 W
b10001 `
b11 %
b11 =
b11 O
b11 V
b11 e
1/
#66000
b10001 a
b100 f
0;
0/
b10000 4
0.
#66500
b101 f
b100 %
b100 =
b100 O
b100 V
b100 e
1/
#67000
b101 _
b101 f
1<
0/
1-
#67500
b110 _
b110 f
b101 (
b101 A
b101 R
b101 X
b101 ^
b101 %
b101 =
b101 O
b101 V
b101 e
1/
#68000
b101 _
b110 f
0<
0/
0-
#68500
b111 f
b110 %
b110 =
b110 O
b110 V
b110 e
1/
#69000
b10010 a
b111 f
1;
0/
1.
#69500
b10011 a
b1000 f
b10010 '
b10010 ?
b10010 Q
b10010 W
b10010 `
b111 %
b111 =
b111 O
b111 V
b111 e
1/
#70000
b10010 a
b1000 f
0;
0/
b10001 4
0.
#70500
b1001 f
b1000 %
b1000 =
b1000 O
b1000 V
b1000 e
1/
#71000
b110 _
b1001 f
1<
0/
1-
#71500
b111 _
b1010 f
b110 (
b110 A
b110 R
b110 X
b110 ^
b1001 %
b1001 =
b1001 O
b1001 V
b1001 e
1/
#72000
b110 _
b1010 f
0<
0/
0-
#72500
b1011 f
b1010 %
b1010 =
b1010 O
b1010 V
b1010 e
1/
#73000
b10011 a
b1011 f
1;
0/
1.
#73500
b10100 a
b1100 f
b10011 '
b10011 ?
b10011 Q
b10011 W
b10011 `
b1011 %
b1011 =
b1011 O
b1011 V
b1011 e
1/
#74000
b10011 a
b1100 f
0;
0/
b10010 4
0.
#74500
b1101 f
b1100 %
b1100 =
b1100 O
b1100 V
b1100 e
1/
#75000
b111 _
b1101 f
1<
0/
1-
#75500
b1000 _
b1110 f
b111 (
b111 A
b111 R
b111 X
b111 ^
b1101 %
b1101 =
b1101 O
b1101 V
b1101 e
1/
#76000
b111 _
b1110 f
0<
0/
0-
#76500
b1111 f
b1110 %
b1110 =
b1110 O
b1110 V
b1110 e
1/
#77000
b10100 a
b1111 f
1;
0/
1.
#77500
b10101 a
b10000 f
b10100 '
b10100 ?
b10100 Q
b10100 W
b10100 `
b1111 %
b1111 =
b1111 O
b1111 V
b1111 e
1/
#78000
b10100 a
b10000 f
0;
0/
b10011 4
0.
#78500
b10001 f
b10000 %
b10000 =
b10000 O
b10000 V
b10000 e
1/
#79000
b1000 _
b10001 f
1<
0/
1-
#79500
b1001 _
b10010 f
b1000 (
b1000 A
b1000 R
b1000 X
b1000 ^
b10001 %
b10001 =
b10001 O
b10001 V
b10001 e
1/
#80000
b1000 _
b10010 f
0<
0/
0-
#80500
b10011 f
b10010 %
b10010 =
b10010 O
b10010 V
b10010 e
1/
#81000
b10101 a
b10011 f
1;
0/
1.
#81500
b10110 a
b10100 f
b10101 '
b10101 ?
b10101 Q
b10101 W
b10101 `
b10011 %
b10011 =
b10011 O
b10011 V
b10011 e
1/
#82000
b10101 a
b10100 f
0;
0/
b10100 4
0.
#82500
b10101 f
b10100 %
b10100 =
b10100 O
b10100 V
b10100 e
1/
#83000
b1001 _
b10101 f
1<
0/
1-
#83500
b1010 _
b10110 f
b1001 (
b1001 A
b1001 R
b1001 X
b1001 ^
b10101 %
b10101 =
b10101 O
b10101 V
b10101 e
1/
#84000
b1001 _
b10110 f
0<
0/
0-
#84500
b10111 f
b10110 %
b10110 =
b10110 O
b10110 V
b10110 e
1/
#85000
b10110 a
b10111 f
1;
0/
1.
#85500
b10111 a
b11000 f
b10110 '
b10110 ?
b10110 Q
b10110 W
b10110 `
b10111 %
b10111 =
b10111 O
b10111 V
b10111 e
1/
#86000
b10110 a
b11000 f
0;
0/
b10101 4
0.
#86500
b11001 f
b11000 %
b11000 =
b11000 O
b11000 V
b11000 e
1/
#87000
b1010 _
b11001 f
1<
0/
1-
#87500
b1011 _
b11010 f
b1010 (
b1010 A
b1010 R
b1010 X
b1010 ^
b11001 %
b11001 =
b11001 O
b11001 V
b11001 e
1/
#88000
b1010 _
b11010 f
0<
0/
0-
#88500
b11011 f
b11010 %
b11010 =
b11010 O
b11010 V
b11010 e
1/
#89000
b10111 a
b11011 f
1;
0/
1.
#89500
b11000 a
b11100 f
b10111 '
b10111 ?
b10111 Q
b10111 W
b10111 `
b11011 %
b11011 =
b11011 O
b11011 V
b11011 e
1/
#90000
b10111 a
b11100 f
0;
0/
b10110 4
0.
#90500
b11101 f
b11100 %
b11100 =
b11100 O
b11100 V
b11100 e
1/
#91000
b1011 _
b11101 f
1<
0/
1-
#91500
0[
b1100 _
b11110 f
b1011 (
b1011 A
b1011 R
b1011 X
b1011 ^
b11101 %
b11101 =
b11101 O
b11101 V
b11101 e
1/
#92000
1[
b1011 _
b11110 f
0<
0/
0-
#92500
b11111 f
b11110 %
b11110 =
b11110 O
b11110 V
b11110 e
1/
#93000
b11000 a
b11111 f
1;
0/
1.
#93500
b11001 a
b100000 f
b11000 '
b11000 ?
b11000 Q
b11000 W
b11000 `
b11111 %
b11111 =
b11111 O
b11111 V
b11111 e
1/
#94000
b11000 a
b100000 f
0;
0/
b0 4
0.
#94500
b100001 f
b100000 %
b100000 =
b100000 O
b100000 V
b100000 e
1/
#95000
b11001 a
b100001 f
1;
0/
1.
#95500
b11010 a
b100010 f
b11001 '
b11001 ?
b11001 Q
b11001 W
b11001 `
b100001 %
b100001 =
b100001 O
b100001 V
b100001 e
1/
#96000
b11001 a
b100010 f
0;
0/
b1 4
0.
#96500
b100011 f
b100010 %
b100010 =
b100010 O
b100010 V
b100010 e
1/
#97000
b11010 a
b100011 f
1;
0/
1.
#97500
b11011 a
b100100 f
b11010 '
b11010 ?
b11010 Q
b11010 W
b11010 `
b100011 %
b100011 =
b100011 O
b100011 V
b100011 e
1/
#98000
b11010 a
b100100 f
0;
0/
b10 4
0.
#98500
b100101 f
b100100 %
b100100 =
b100100 O
b100100 V
b100100 e
1/
#99000
b11011 a
b100101 f
1;
0/
1.
#99500
b11100 a
b100110 f
b11011 '
b11011 ?
b11011 Q
b11011 W
b11011 `
b100101 %
b100101 =
b100101 O
b100101 V
b100101 e
1/
#100000
b11011 a
b100110 f
0;
0/
b11 4
0.
#100500
b100111 f
b100110 %
b100110 =
b100110 O
b100110 V
b100110 e
1/
#101000
b11100 a
b100111 f
1;
0/
1.
#101500
b11101 a
b101000 f
b11100 '
b11100 ?
b11100 Q
b11100 W
b11100 `
b100111 %
b100111 =
b100111 O
b100111 V
b100111 e
1/
#102000
b11100 a
b101000 f
0;
0/
b100 4
0.
#102500
b101001 f
b101000 %
b101000 =
b101000 O
b101000 V
b101000 e
1/
#103000
b11101 a
b101001 f
1;
0/
1.
#103500
b11110 a
b101010 f
b11101 '
b11101 ?
b11101 Q
b11101 W
b11101 `
b101001 %
b101001 =
b101001 O
b101001 V
b101001 e
1/
#104000
b11101 a
b101010 f
0;
0/
b101 4
0.
#104500
b101011 f
b101010 %
b101010 =
b101010 O
b101010 V
b101010 e
1/
#105000
b11110 a
b101011 f
1;
0/
1.
#105500
b11111 a
b101100 f
b11110 '
b11110 ?
b11110 Q
b11110 W
b11110 `
b101011 %
b101011 =
b101011 O
b101011 V
b101011 e
1/
#106000
b11110 a
b101100 f
0;
0/
b110 4
0.
#106500
b101101 f
b101100 %
b101100 =
b101100 O
b101100 V
b101100 e
1/
#107000
b11111 a
b101101 f
1;
0/
1.
#107500
b100000 a
b101110 f
b11111 '
b11111 ?
b11111 Q
b11111 W
b11111 `
b101101 %
b101101 =
b101101 O
b101101 V
b101101 e
1/
#108000
b11111 a
b101110 f
0;
0/
b111 4
0.
#108500
b101111 f
b101110 %
b101110 =
b101110 O
b101110 V
b101110 e
1/
#109000
b100000 a
b101111 f
1;
0/
1.
#109500
b100001 a
b110000 f
b100000 '
b100000 ?
b100000 Q
b100000 W
b100000 `
b101111 %
b101111 =
b101111 O
b101111 V
b101111 e
1/
#110000
b100000 a
b110000 f
0;
0/
b1000 4
0.
#110500
b110001 f
b110000 %
b110000 =
b110000 O
b110000 V
b110000 e
1/
#111000
b100001 a
b110001 f
1;
0/
1.
#111500
b100010 a
b110010 f
b100001 '
b100001 ?
b100001 Q
b100001 W
b100001 `
b110001 %
b110001 =
b110001 O
b110001 V
b110001 e
1/
#112000
b100001 a
b110010 f
0;
0/
b1001 4
0.
#112500
b110011 f
b110010 %
b110010 =
b110010 O
b110010 V
b110010 e
1/
#113000
b100010 a
b110011 f
1;
0/
1.
#113500
b100011 a
b110100 f
b100010 '
b100010 ?
b100010 Q
b100010 W
b100010 `
b110011 %
b110011 =
b110011 O
b110011 V
b110011 e
1/
#114000
b100010 a
b110100 f
0;
0/
b1010 4
0.
#114500
b110101 f
b110100 %
b110100 =
b110100 O
b110100 V
b110100 e
1/
#115000
b100011 a
b110101 f
1;
0/
1.
#115500
b100100 a
b110110 f
b100011 '
b100011 ?
b100011 Q
b100011 W
b100011 `
b110101 %
b110101 =
b110101 O
b110101 V
b110101 e
1/
#116000
b100011 a
b110110 f
0;
0/
b1011 4
0.
#116500
b110111 f
b110110 %
b110110 =
b110110 O
b110110 V
b110110 e
1/
#117000
b100100 a
b110111 f
1;
0/
1.
#117500
b100101 a
b111000 f
b100100 '
b100100 ?
b100100 Q
b100100 W
b100100 `
b110111 %
b110111 =
b110111 O
b110111 V
b110111 e
1/
#118000
b100100 a
b111000 f
0;
0/
b1100 4
0.
#118500
b111001 f
b111000 %
b111000 =
b111000 O
b111000 V
b111000 e
1/
#119000
b100101 a
b111001 f
1;
0/
1.
#119500
b100110 a
b111010 f
b100101 '
b100101 ?
b100101 Q
b100101 W
b100101 `
b111001 %
b111001 =
b111001 O
b111001 V
b111001 e
1/
#120000
b100101 a
b111010 f
0;
0/
b1101 4
0.
#120500
b111011 f
b111010 %
b111010 =
b111010 O
b111010 V
b111010 e
1/
#121000
b100110 a
b111011 f
1;
0/
1.
#121500
b100111 a
b1 d
b0 f
b100110 '
b100110 ?
b100110 Q
b100110 W
b100110 `
b111011 %
b111011 =
b111011 O
b111011 V
b111011 e
1/
#122000
b100110 a
b0 f
b1 d
0;
0/
b1110 4
0.
#122500
b0 d
b100111 a
b0 %
b0 =
b0 O
b0 V
b0 e
b1 g
1/
#123000
b100111 a
b0 d
1;
0/
1.
#123500
b101000 a
b1 f
b100111 '
b100111 ?
b100111 Q
b100111 W
b100111 `
b0 g
1/
#124000
b100111 a
b1 f
0;
0/
b1111 4
0.
#124500
b10 f
b1 %
b1 =
b1 O
b1 V
b1 e
1/
#125000
b101000 a
b10 f
1;
0/
1.
#125500
b101001 a
b11 f
b101000 '
b101000 ?
b101000 Q
b101000 W
b101000 `
b10 %
b10 =
b10 O
b10 V
b10 e
1/
#126000
b101000 a
b11 f
0;
0/
b10000 4
0.
#126500
b100 f
b11 %
b11 =
b11 O
b11 V
b11 e
1/
#127000
b101001 a
b100 f
1;
0/
1.
#127500
b101010 a
b101 f
b101001 '
b101001 ?
b101001 Q
b101001 W
b101001 `
b100 %
b100 =
b100 O
b100 V
b100 e
1/
#128000
b101001 a
b101 f
0;
0/
b10001 4
0.
#128500
b110 f
b101 %
b101 =
b101 O
b101 V
b101 e
1/
#129000
b101010 a
b110 f
1;
0/
1.
#129500
b101011 a
b111 f
b101010 '
b101010 ?
b101010 Q
b101010 W
b101010 `
b110 %
b110 =
b110 O
b110 V
b110 e
1/
#130000
b101010 a
b111 f
0;
0/
b10010 4
0.
#130500
b1000 f
b111 %
b111 =
b111 O
b111 V
b111 e
1/
#131000
b101011 a
b1000 f
1;
0/
1.
#131500
b101100 a
b1001 f
b101011 '
b101011 ?
b101011 Q
b101011 W
b101011 `
b1000 %
b1000 =
b1000 O
b1000 V
b1000 e
1/
#132000
b101011 a
b1001 f
0;
0/
b10011 4
0.
#132500
b1010 f
b1001 %
b1001 =
b1001 O
b1001 V
b1001 e
1/
#133000
b101100 a
b1010 f
1;
0/
1.
#133500
b101101 a
b1011 f
b101100 '
b101100 ?
b101100 Q
b101100 W
b101100 `
b1010 %
b1010 =
b1010 O
b1010 V
b1010 e
1/
#134000
b101100 a
b1011 f
0;
0/
b10100 4
0.
#134500
b1100 f
b1011 %
b1011 =
b1011 O
b1011 V
b1011 e
1/
#135000
b101101 a
b1100 f
1;
0/
1.
#135500
b101110 a
b1101 f
b101101 '
b101101 ?
b101101 Q
b101101 W
b101101 `
b1100 %
b1100 =
b1100 O
b1100 V
b1100 e
1/
#136000
b101101 a
b1101 f
0;
0/
b10101 4
0.
#136500
b1110 f
b1101 %
b1101 =
b1101 O
b1101 V
b1101 e
1/
#137000
b101110 a
b1110 f
1;
0/
1.
#137500
b101111 a
b1111 f
b101110 '
b101110 ?
b101110 Q
b101110 W
b101110 `
b1110 %
b1110 =
b1110 O
b1110 V
b1110 e
1/
#138000
b101110 a
b1111 f
0;
0/
b10110 4
0.
#138500
b10000 f
b1111 %
b1111 =
b1111 O
b1111 V
b1111 e
1/
#139000
b101111 a
b10000 f
1;
0/
1.
#139500
b110000 a
b10001 f
b101111 '
b101111 ?
b101111 Q
b101111 W
b101111 `
b10000 %
b10000 =
b10000 O
b10000 V
b10000 e
1/
#140000
b101111 a
b10001 f
0;
0/
b10111 4
0.
#140500
b10010 f
b10001 %
b10001 =
b10001 O
b10001 V
b10001 e
1/
#141000
b110000 a
b10010 f
1;
0/
1.
#141500
b110001 a
b10011 f
b110000 '
b110000 ?
b110000 Q
b110000 W
b110000 `
b10010 %
b10010 =
b10010 O
b10010 V
b10010 e
1/
#142000
b110000 a
b10011 f
0;
0/
b11000 4
0.
#142500
b10100 f
b10011 %
b10011 =
b10011 O
b10011 V
b10011 e
1/
#143000
b110001 a
b10100 f
1;
0/
1.
#143500
b110010 a
b10101 f
b110001 '
b110001 ?
b110001 Q
b110001 W
b110001 `
b10100 %
b10100 =
b10100 O
b10100 V
b10100 e
1/
#144000
b110001 a
b10101 f
0;
0/
b11001 4
0.
#144500
b10110 f
b10101 %
b10101 =
b10101 O
b10101 V
b10101 e
1/
#145000
b110010 a
b10110 f
1;
0/
1.
