Clock/test.vcd
$date
	Tue May  6 22:58:28 2025
$end
$version
	Icarus Verilog
$end
$timescale
	1ms
$end
$scope module test $end
$var wire 12 ! year [11:0] $end
$var wire 6 " timer_sec_left [5:0] $end
$var wire 6 # timer_min_left [5:0] $end
$var wire 1 $ timer_buzzer $end
$var wire 6 % sec [5:0] $end
$var wire 4 & month [3:0] $end
$var wire 6 ' min [5:0] $end
$var wire 6 ( hr [5:0] $end
$var wire 5 ) day [4:0] $end
$var wire 1 * alarm_buzzer $end
$var wire 1 + AM_PM $end
$var reg 1 , AM_mode $end
$var reg 1 - add_hour $end
$var reg 1 . add_minute $end
$var reg 1 / clk $end
$var reg 1 0 mode_btn $end
$var reg 1 1 reset $end
$var reg 1 2 set_alarm_btn $end
$var reg 1 3 set_timer_btn $end
$scope module uut $end
$var wire 1 , AM_mode $end
$var wire 1 - add_hour $end
$var wire 1 . add_minute $end
$var wire 1 / clk $end
$var wire 1 0 mode_btn $end
$var wire 1 1 reset $end
$var wire 1 4 set_alarm $end
$var wire 1 2 set_alarm_btn $end
$var wire 1 5 set_timer $end
$var wire 1 3 set_timer_btn $end
$var wire 12 6 year [11:0] $end
$var wire 6 7 timer_sec_left [5:0] $end
$var wire 1 8 timer_mode_active $end
$var wire 6 9 timer_min_left [5:0] $end
$var wire 1 $ timer_buzzer $end
$var wire 6 : sec [5:0] $end
$var wire 4 ; month [3:0] $end
$var wire 6 < min [5:0] $end
$var wire 6 = hr [5:0] $end
$var wire 5 > day [4:0] $end
$var wire 1 ? alarm_mode_active $end
$var wire 1 * alarm_buzzer $end
$var wire 1 + AM_PM $end
$var reg 6 @ alarm_hr [5:0] $end
$var reg 6 A alarm_min [5:0] $end
$var reg 2 B next_state [1:0] $end
$var reg 2 C state [1:0] $end
$var reg 4 D timer_minutes [3:0] $end
$scope module UDC $end
$var wire 1 , AM_mode $end
$var wire 1 E add_hour $end
$var wire 1 F add_minute $end
$var wire 6 G alarm_hr [5:0] $end
$var wire 6 H alarm_min [5:0] $end
$var wire 1 / clk $end
$var wire 1 1 reset $end
$var wire 1 4 set_alarm $end
$var wire 1 5 set_timer $end
$var wire 4 I timer_minutes [3:0] $end
$var wire 12 J year [11:0] $end
$var wire 6 K timer_sec_left [5:0] $end
$var wire 6 L timer_min_left [5:0] $end
$var wire 1 $ timer_buzzer $end
$var wire 6 M sec [5:0] $end
$var wire 4 N month [3:0] $end
$var wire 6 O min [5:0] $end
$var wire 6 P hr [5:0] $end
$var wire 5 Q day [4:0] $end
$var wire 1 * alarm_buzzer $end
$var wire 1 + AM_PM $end
$scope module am $end
$var wire 6 R alarm_hr [5:0] $end
$var wire 6 S alarm_min [5:0] $end
$var wire 1 / clk $end
$var wire 1 1 reset $end
$var wire 1 4 set_alarm $end
$var wire 6 T curr_sec [5:0] $end
$var wire 6 U curr_min [5:0] $end
$var wire 6 V curr_hr [5:0] $end
$var reg 1 * alarm_buzzer $end
$var reg 6 W alarm_hr_reg [5:0] $end
$var reg 6 X alarm_min_reg [5:0] $end
$upscope $end
$scope module tk $end
$var wire 1 , AM_mode $end
$var wire 1 E add_hour $end
$var wire 1 F add_minute $end
$var wire 1 / clk $end
$var wire 1 1 reset $end
$var reg 1 + AM_PM $end
$var reg 1 Y AM_PM_next $end
$var reg 5 Z day [4:0] $end
$var reg 5 [ day_next [4:0] $end
$var reg 6 \ hr [5:0] $end
$var reg 6 ] hr_next [5:0] $end
$var reg 6 ^ min [5:0] $end
$var reg 6 _ min_next [5:0] $end
$var reg 4 ` month [3:0] $end
$var reg 4 a month_next [3:0] $end
$var reg 2 b next_state [1:0] $end
$var reg 6 c sec [5:0] $end
$var reg 6 d sec_next [5:0] $end
$var reg 2 e state [1:0] $end
$var reg 12 f year [11:0] $end
$var reg 12 g year_next [11:0] $end
$upscope $end
$scope module tm $end
$var wire 1 / clk $end
$var wire 1 1 reset $end
$var wire 1 5 set_timer $end
$var wire 4 h timer_minutes [3:0] $end
$var wire 6 i timer_sec_left [5:0] $end
$var wire 6 j timer_min_left [5:0] $end
$var reg 1 $ timer_buzzer $end
$var reg 10 k timer_sec_total [9:0] $end
$upscope $end
$upscope $end
$upscope $end
$upscope $end
$enddefinitions $end
#0
$dumpvars
b0 k
b0 j
b0 i
b0 h
b11111100100 g
b11111100100 f
b0 e
b1 d
b0 c
b0 b
b1 a
b1 `
b0 _
b0 ^
b1100 ]
b1100 \
b1 [
b1 Z
0Y
b0 X
b0 W
b1100 V
b0 U
b0 T
b0 S
b0 R
b1 Q
b1100 P
b0 O
b1 N
b0 M
b0 L
b0 K
b11111100100 J
b0 I
b0 H
b0 G
0F
0E
b0 D
b0 C
b0 B
b0 A
b0 @
0?
b1 >
b1100 =
b0 <
b1 ;
b0 :
b0 9
08
b0 7
b11111100100 6
05
04
03
02
11
00
0/
0.
0-
1,
0+
0*
b1 )
b1100 (
b0 '
b1 &
b0 %
0$
b0 #
b0 "
b11111100100 !
$end
#500
1/
#1000
0/
#1500
1/
#2000
0/
01
#2500
b10 d
b1 %
b1 :
b1 M
b1 T
b1 c
1/
#3000
0/
#3500
b11 d
b10 %
b10 :
b10 M
b10 T
b10 c
1/
#4000
0/
#4500
b100 d
b11 %
b11 :
b11 M
b11 T
b11 c
1/
#5000
0/
#5500
b101 d
b100 %
b100 :
b100 M
b100 T
b100 c
1/
#6000
0/
#6500
b110 d
b101 %
b101 :
b101 M
b101 T
b101 c
1/
#7000
b1 B
0/
10
#7500
b111 d
b10 B
b110 %
b110 :
b110 M
b110 T
b110 c
18
b1 C
1/
#8000
b1 B
0/
00
#8500
b1000 d
b111 %
b111 :
b111 M
b111 T
b111 c
1/
#9000
0/
#9500
b1001 d
b1000 %
b1000 :
b1000 M
b1000 T
b1000 c
1/
#10000
0/
#10500
b1010 d
b1001 %
b1001 :
b1001 M
b1001 T
b1001 c
1/
#11000
0/
#11500
b1011 d
b1010 %
b1010 :
b1010 M
b1010 T
b1010 c
1/
#12000
0/
#12500
b1100 d
b1011 %
b1011 :
b1011 M
b1011 T
b1011 c
1/
#13000
0/
1.
#13500
b1101 d
b1100 %
b1100 :
b1100 M
b1100 T
b1100 c
b1 D
b1 I
b1 h
1/
#14000
0/
0.
#14500
b1110 d
b1101 %
b1101 :
b1101 M
b1101 T
b1101 c
1/
#15000
0/
#15500
b1111 d
b1110 %
b1110 :
b1110 M
b1110 T
b1110 c
1/
#16000
0/
#16500
b10000 d
b1111 %
b1111 :
b1111 M
b1111 T
b1111 c
1/
#17000
0/
#17500
b10001 d
b10000 %
b10000 :
b10000 M
b10000 T
b10000 c
1/
#18000
0/
#18500
b10010 d
b10001 %
b10001 :
b10001 M
b10001 T
b10001 c
1/
#19000
0/
1.
#19500
b10011 d
b10010 %
b10010 :
b10010 M
b10010 T
b10010 c
b10 D
b10 I
b10 h
1/
#20000
0/
0.
#20500
b10100 d
b10011 %
b10011 :
b10011 M
b10011 T
b10011 c
1/
#21000
0/
#21500
b10101 d
b10100 %
b10100 :
b10100 M
b10100 T
b10100 c
1/
#22000
0/
#22500
b10110 d
b10101 %
b10101 :
b10101 M
b10101 T
b10101 c
1/
#23000
0/
#23500
b10111 d
b10110 %
b10110 :
b10110 M
b10110 T
b10110 c
1/
#24000
0/
#24500
b11000 d
b10111 %
b10111 :
b10111 M
b10111 T
b10111 c
1/
#25000
15
0/
13
#25500
b11001 d
b10 #
b10 9
b10 L
b10 j
b11000 %
b11000 :
b11000 M
b11000 T
b11000 c
b1111000 k
1/
#26000
05
0/
03
#26500
b1 #
b1 9
b1 L
b1 j
b111011 "
b111011 7
b111011 K
b111011 i
b11010 d
b1110111 k
b11001 %
b11001 :
b11001 M
b11001 T
b11001 c
1/
#27000
0/
#27500
b11011 d
b111010 "
b111010 7
b111010 K
b111010 i
b11010 %
b11010 :
b11010 M
b11010 T
b11010 c
b1110110 k
1/
#28000
0/
#28500
b111001 "
b111001 7
b111001 K
b111001 i
b11100 d
b1110101 k
b11011 %
b11011 :
b11011 M
b11011 T
b11011 c
1/
#29000
0/
#29500
b11101 d
b111000 "
b111000 7
b111000 K
b111000 i
b11100 %
b11100 :
b11100 M
b11100 T
b11100 c
b1110100 k
1/
#30000
0/
#30500
b110111 "
b110111 7
b110111 K
b110111 i
b11110 d
b1110011 k
b11101 %
b11101 :
b11101 M
b11101 T
b11101 c
1/
#31000
0/
#31500
b11111 d
b110110 "
b110110 7
b110110 K
b110110 i
b11110 %
b11110 :
b11110 M
b11110 T
b11110 c
b1110010 k
1/
#32000
0/
#32500
b110101 "
b110101 7
b110101 K
b110101 i
b100000 d
b1110001 k
b11111 %
b11111 :
b11111 M
b11111 T
b11111 c
1/
#33000
0/
#33500
b100001 d
b110100 "
b110100 7
b110100 K
b110100 i
b100000 %
b100000 :
b100000 M
b100000 T
b100000 c
b1110000 k
1/
#34000
0/
#34500
b110011 "
b110011 7
b110011 K
b110011 i
b100010 d
b1101111 k
b100001 %
b100001 :
b100001 M
b100001 T
b100001 c
1/
#35000
0/
#35500
b100011 d
b110010 "
b110010 7
b110010 K
b110010 i
b100010 %
b100010 :
b100010 M
b100010 T
b100010 c
b1101110 k
1/
#36000
b10 B
0/
10
#36500
b0 B
b110001 "
b110001 7
b110001 K
b110001 i
b100100 d
08
1?
b10 C
b1101101 k
b100011 %
b100011 :
b100011 M
b100011 T
b100011 c
1/
#37000
b10 B
0/
00
#37500
b100101 d
b110000 "
b110000 7
b110000 K
b110000 i
b100100 %
b100100 :
b100100 M
b100100 T
b100100 c
b1101100 k
1/
#38000
0/
#38500
b101111 "
b101111 7
b101111 K
b101111 i
b100110 d
b1101011 k
b100101 %
b100101 :
b100101 M
b100101 T
b100101 c
1/
#39000
0/
#39500
b100111 d
b101110 "
b101110 7
b101110 K
b101110 i
b100110 %
b100110 :
b100110 M
b100110 T
b100110 c
b1101010 k
1/
#40000
0/
#40500
b101101 "
b101101 7
b101101 K
b101101 i
b101000 d
b1101001 k
b100111 %
b100111 :
b100111 M
b100111 T
b100111 c
1/
#41000
0/
#41500
b101001 d
b101100 "
b101100 7
b101100 K
b101100 i
b101000 %
b101000 :
b101000 M
b101000 T
b101000 c
b1101000 k
1/
#42000
0/
1-
#42500
b101011 "
b101011 7
b101011 K
b101011 i
b101010 d
b1 @
b1 G
b1 R
b1100111 k
b101001 %
b101001 :
b101001 M
b101001 T
b101001 c
1/
#43000
0/
0-
#43500
b101011 d
b101010 "
b101010 7
b101010 K
b101010 i
b101010 %
b101010 :
b101010 M
b101010 T
b101010 c
b1100110 k
1/
#44000
0/
#44500
b101001 "
b101001 7
b101001 K
b101001 i
b101100 d
b1100101 k
b101011 %
b101011 :
b101011 M
b101011 T
b101011 c
1/
#45000
0/
#45500
b101101 d
b101000 "
b101000 7
b101000 K
b101000 i
b101100 %
b101100 :
b101100 M
b101100 T
b101100 c
b1100100 k
1/
#46000
0/
#46500
b100111 "
b100111 7
b100111 K
b100111 i
b101110 d
b1100011 k
b101101 %
b101101 :
b101101 M
b101101 T
b101101 c
1/
#47000
0/
#47500
b101111 d
b100110 "
b100110 7
b100110 K
b100110 i
b101110 %
b101110 :
b101110 M
b101110 T
b101110 c
b1100010 k
1/
#48000
0/
1.
#48500
b100101 "
b100101 7
b100101 K
b100101 i
b110000 d
b1 A
b1 H
b1 S
b1100001 k
b101111 %
b101111 :
b101111 M
b101111 T
b101111 c
1/
#49000
0/
0.
#49500
b110001 d
b100100 "
b100100 7
b100100 K
b100100 i
b110000 %
b110000 :
b110000 M
b110000 T
b110000 c
b1100000 k
1/
#50000
0/
#50500
b100011 "
b100011 7
b100011 K
b100011 i
b110010 d
b1011111 k
b110001 %
b110001 :
b110001 M
b110001 T
b110001 c
1/
#51000
0/
#51500
b110011 d
b100010 "
b100010 7
b100010 K
b100010 i
b110010 %
b110010 :
b110010 M
b110010 T
b110010 c
b1011110 k
1/
#52000
0/
#52500
b100001 "
b100001 7
b100001 K
b100001 i
b110100 d
b1011101 k
b110011 %
b110011 :
b110011 M
b110011 T
b110011 c
1/
#53000
0/
#53500
b110101 d
b100000 "
b100000 7
b100000 K
b100000 i
b110100 %
b110100 :
b110100 M
b110100 T
b110100 c
b1011100 k
1/
#54000
14
0/
12
#54500
b11111 "
b11111 7
b11111 K
b11111 i
b110110 d
b1 X
b1 W
b1011011 k
b110101 %
b110101 :
b110101 M
b110101 T
b110101 c
1/
#55000
04
0/
02
#55500
b110111 d
b11110 "
b11110 7
b11110 K
b11110 i
b110110 %
b110110 :
b110110 M
b110110 T
b110110 c
b1011010 k
1/
#56000
0/
#56500
b11101 "
b11101 7
b11101 K
b11101 i
b111000 d
b1011001 k
b110111 %
b110111 :
b110111 M
b110111 T
b110111 c
1/
#57000
0/
#57500
b111001 d
b11100 "
b11100 7
b11100 K
b11100 i
b111000 %
b111000 :
b111000 M
b111000 T
b111000 c
b1011000 k
1/
#58000
0/
#58500
b11011 "
b11011 7
b11011 K
b11011 i
b111010 d
b1010111 k
b111001 %
b111001 :
b111001 M
b111001 T
b111001 c
1/
#59000
0/
#59500
b111011 d
b11010 "
b11010 7
b11010 K
b11010 i
b111010 %
b111010 :
b111010 M
b111010 T
b111010 c
b1010110 k
1/
#60000
0/
#60500
b11001 "
b11001 7
b11001 K
b11001 i
b1 b
b0 d
b1010101 k
b111011 %
b111011 :
b111011 M
b111011 T
b111011 c
1/
#61000
0/
#61500
b0 b
b1 _
b11000 "
b11000 7
b11000 K
b11000 i
b0 %
b0 :
b0 M
b0 T
b0 c
b1 e
b1010100 k
1/
#62000
0/
#62500
b10111 "
b10111 7
b10111 K
b10111 i
b1 d
b1010011 k
b1 '
b1 <
b1 O
b1 U
b1 ^
b0 e
1/
#63000
0/
#63500
b10 d
b10110 "
b10110 7
b10110 K
b10110 i
b1 %
b1 :
b1 M
b1 T
b1 c
b1010010 k
1/
#64000
0/
#64500
b10101 "
b10101 7
b10101 K
b10101 i
b11 d
b1010001 k
b10 %
b10 :
b10 M
b10 T
b10 c
1/
#65000
b0 B
0/
10
#65500
b100 d
b10100 "
b10100 7
b10100 K
b10100 i
b1 B
b11 %
b11 :
b11 M
b11 T
b11 c
b1010000 k
0?
b0 C
1/
#66000
b0 B
0/
00
#66500
b10011 "
b10011 7
b10011 K
b10011 i
b101 d
b1001111 k
b100 %
b100 :
b100 M
b100 T
b100 c
1/
#67000
0/
#67500
b110 d
b10010 "
b10010 7
b10010 K
b10010 i
b101 %
b101 :
b101 M
b101 T
b101 c
b1001110 k
1/
#68000
0/
#68500
b10001 "
b10001 7
b10001 K
b10001 i
b111 d
b1001101 k
b110 %
b110 :
b110 M
b110 T
b110 c
1/
#69000
0/
#69500
b1000 d
b10000 "
b10000 7
b10000 K
b10000 i
b111 %
b111 :
b111 M
b111 T
b111 c
b1001100 k
1/
#70000
0/
#70500
b1111 "
b1111 7
b1111 K
b1111 i
b1001 d
b1001011 k
b1000 %
b1000 :
b1000 M
b1000 T
b1000 c
1/
#71000
0/
#71500
b1010 d
b1110 "
b1110 7
b1110 K
b1110 i
b1001 %
b1001 :
b1001 M
b1001 T
b1001 c
b1001010 k
1/
#72000
0/
#72500
b1101 "
b1101 7
b1101 K
b1101 i
b1011 d
b1001001 k
b1010 %
b1010 :
b1010 M
b1010 T
b1010 c
1/
#73000
0/
#73500
b1100 d
b1100 "
b1100 7
b1100 K
b1100 i
b1011 %
b1011 :
b1011 M
b1011 T
b1011 c
b1001000 k
1/
#74000
0/
#74500
b1011 "
b1011 7
b1011 K
b1011 i
b1101 d
b1000111 k
b1100 %
b1100 :
b1100 M
b1100 T
b1100 c
1/
#75000
0/
#75500
b1110 d
b1010 "
b1010 7
b1010 K
b1010 i
b1101 %
b1101 :
b1101 M
b1101 T
b1101 c
b1000110 k
1/
#76000
0/
#76500
b1001 "
b1001 7
b1001 K
b1001 i
b1111 d
b1000101 k
b1110 %
b1110 :
b1110 M
b1110 T
b1110 c
1/
#77000
0/
#77500
b10000 d
b1000 "
b1000 7
b1000 K
b1000 i
b1111 %
b1111 :
b1111 M
b1111 T
b1111 c
b1000100 k
1/
#78000
0/
#78500
b111 "
b111 7
b111 K
b111 i
b10001 d
b1000011 k
b10000 %
b10000 :
b10000 M
b10000 T
b10000 c
1/
#79000
0/
#79500
b10010 d
b110 "
b110 7
b110 K
b110 i
b10001 %
b10001 :
b10001 M
b10001 T
b10001 c
b1000010 k
1/
#80000
0/
#80500
b101 "
b101 7
b101 K
b101 i
b10011 d
b1000001 k
b10010 %
b10010 :
b10010 M
b10010 T
b10010 c
1/
#81000
0/
#81500
b10100 d
b100 "
b100 7
b100 K
b100 i
b10011 %
b10011 :
b10011 M
b10011 T
b10011 c
b1000000 k
1/
#82000
0/
#82500
b11 "
b11 7
b11 K
b11 i
b10101 d
b111111 k
b10100 %
b10100 :
b10100 M
b10100 T
b10100 c
1/
#83000
0/
#83500
b10110 d
b10 "
b10 7
b10 K
b10 i
b10101 %
b10101 :
b10101 M
b10101 T
b10101 c
b111110 k
1/
#84000
0/
#84500
b1 "
b1 7
b1 K
b1 i
b10111 d
b111101 k
b10110 %
b10110 :
b10110 M
b10110 T
b10110 c
1/
#85000
0/
#85500
b11000 d
b0 "
b0 7
b0 K
b0 i
b10111 %
b10111 :
b10111 M
b10111 T
b10111 c
b111100 k
1/
#86000
0/
#86500
b0 #
b0 9
b0 L
b0 j
b111011 "
b111011 7
b111011 K
b111011 i
b11001 d
b111011 k
b11000 %
b11000 :
b11000 M
b11000 T
b11000 c
1/
#87000
0/
#87500
b11010 d
b111010 "
b111010 7
b111010 K
b111010 i
b11001 %
b11001 :
b11001 M
b11001 T
b11001 c
b111010 k
1/
#88000
0/
#88500
b111001 "
b111001 7
b111001 K
b111001 i
b11011 d
b111001 k
b11010 %
b11010 :
b11010 M
b11010 T
b11010 c
1/
#89000
0/
#89500
b11100 d
b111000 "
b111000 7
b111000 K
b111000 i
b11011 %
b11011 :
b11011 M
b11011 T
b11011 c
b111000 k
1/
#90000
0/
#90500
b110111 "
b110111 7
b110111 K
b110111 i
b11101 d
b110111 k
b11100 %
b11100 :
b11100 M
b11100 T
b11100 c
1/
#91000
0/
#91500
b11110 d
b110110 "
b110110 7
b110110 K
b110110 i
b11101 %
b11101 :
b11101 M
b11101 T
b11101 c
b110110 k
1/
#92000
0/
#92500
b110101 "
b110101 7
b110101 K
b110101 i
b11111 d
b110101 k
b11110 %
b11110 :
b11110 M
b11110 T
b11110 c
1/
#93000
0/
#93500
b100000 d
b110100 "
b110100 7
b110100 K
b110100 i
b11111 %
b11111 :
b11111 M
b11111 T
b11111 c
b110100 k
1/
#94000
0/
#94500
b110011 "
b110011 7
b110011 K
b110011 i
b100001 d
b110011 k
b100000 %
b100000 :
b100000 M
b100000 T
b100000 c
1/
#95000
0/
#95500
b100010 d
b110010 "
b110010 7
b110010 K
b110010 i
b100001 %
b100001 :
b100001 M
b100001 T
b100001 c
b110010 k
1/
#96000
0/
#96500
b110001 "
b110001 7
b110001 K
b110001 i
b100011 d
b110001 k
b100010 %
b100010 :
b100010 M
b100010 T
b100010 c
1/
#97000
0/
#97500
b100100 d
b110000 "
b110000 7
b110000 K
b110000 i
b100011 %
b100011 :
b100011 M
b100011 T
b100011 c
b110000 k
1/
#98000
0/
#98500
b101111 "
b101111 7
b101111 K
b101111 i
b100101 d
b101111 k
b100100 %
b100100 :
b100100 M
b100100 T
b100100 c
1/
#99000
0/
#99500
b100110 d
b101110 "
b101110 7
b101110 K
b101110 i
b100101 %
b100101 :
b100101 M
b100101 T
b100101 c
b101110 k
1/
#100000
0/
#100500
b101101 "
b101101 7
b101101 K
b101101 i
b100111 d
b101101 k
b100110 %
b100110 :
b100110 M
b100110 T
b100110 c
1/
#101000
0/
#101500
b101000 d
b101100 "
b101100 7
b101100 K
b101100 i
b100111 %
b100111 :
b100111 M
b100111 T
b100111 c
b101100 k
1/
#102000
0/
#102500
b101011 "
b101011 7
b101011 K
b101011 i
b101001 d
b101011 k
b101000 %
b101000 :
b101000 M
b101000 T
b101000 c
1/
#103000
0/
#103500
b101010 d
b101010 "
b101010 7
b101010 K
b101010 i
b101001 %
b101001 :
b101001 M
b101001 T
b101001 c
b101010 k
1/
#104000
0/
#104500
b101001 "
b101001 7
b101001 K
b101001 i
b101011 d
b101001 k
b101010 %
b101010 :
b101010 M
b101010 T
b101010 c
1/
#105000
0/
#105500
b101100 d
b101000 "
b101000 7
b101000 K
b101000 i
b101011 %
b101011 :
b101011 M
b101011 T
b101011 c
b101000 k
1/
#106000
0/
#106500
b100111 "
b100111 7
b100111 K
b100111 i
b101101 d
b100111 k
b101100 %
b101100 :
b101100 M
b101100 T
b101100 c
1/
#107000
0/
#107500
b101110 d
b100110 "
b100110 7
b100110 K
b100110 i
b101101 %
b101101 :
b101101 M
b101101 T
b101101 c
b100110 k
1/
#108000
0/
#108500
b100101 "
b100101 7
b100101 K
b100101 i
b101111 d
b100101 k
b101110 %
b101110 :
b101110 M
b101110 T
b101110 c
1/
#109000
0/
#109500
b110000 d
b100100 "
b100100 7
b100100 K
b100100 i
b101111 %
b101111 :
b101111 M
b101111 T
b101111 c
b100100 k
1/
#110000
0/
#110500
b100011 "
b100011 7
b100011 K
b100011 i
b110001 d
b100011 k
b110000 %
b110000 :
b110000 M
b110000 T
b110000 c
1/
#111000
0/
#111500
b110010 d
b100010 "
b100010 7
b100010 K
b100010 i
b110001 %
b110001 :
b110001 M
b110001 T
b110001 c
b100010 k
1/
#112000
0/
#112500
b100001 "
b100001 7
b100001 K
b100001 i
b110011 d
b100001 k
b110010 %
b110010 :
b110010 M
b110010 T
b110010 c
1/
#113000
0/
#113500
b110100 d
b100000 "
b100000 7
b100000 K
b100000 i
b110011 %
b110011 :
b110011 M
b110011 T
b110011 c
b100000 k
1/
#114000
0/
#114500
b11111 "
b11111 7
b11111 K
b11111 i
b110101 d
b11111 k
b110100 %
b110100 :
b110100 M
b110100 T
b110100 c
1/
#115000
0/
#115500
b110110 d
b11110 "
b11110 7
b11110 K
b11110 i
b110101 %
b110101 :
b110101 M
b110101 T
b110101 c
b11110 k
1/
#116000
0/
#116500
b11101 "
b11101 7
b11101 K
b11101 i
b110111 d
b11101 k
b110110 %
b110110 :
b110110 M
b110110 T
b110110 c
1/
#117000
0/
#117500
b111000 d
b11100 "
b11100 7
b11100 K
b11100 i
b110111 %
b110111 :
b110111 M
b110111 T
b110111 c
b11100 k
1/
#118000
0/
#118500
b11011 "
b11011 7
b11011 K
b11011 i
b111001 d
b11011 k
b111000 %
b111000 :
b111000 M
b111000 T
b111000 c
1/
#119000
0/
#119500
b111010 d
b11010 "
b11010 7
b11010 K
b11010 i
b111001 %
b111001 :
b111001 M
b111001 T
b111001 c
b11010 k
1/
#120000
0/
#120500
b11001 "
b11001 7
b11001 K
b11001 i
b111011 d
b11001 k
b111010 %
b111010 :
b111010 M
b111010 T
b111010 c
1/
#121000
0/
#121500
b1 b
b0 d
b11000 "
b11000 7
b11000 K
b11000 i
b111011 %
b111011 :
b111011 M
b111011 T
b111011 c
b11000 k
1/
#122000
0/
#122500
b10111 "
b10111 7
b10111 K
b10111 i
b0 b
b10 _
b10111 k
b0 %
b0 :
b0 M
b0 T
b0 c
b1 e
1/
#123000
0/
#123500
b1 d
b10110 "
b10110 7
b10110 K
b10110 i
b10 '
b10 <
b10 O
b10 U
b10 ^
b0 e
b10110 k
1/
#124000
0/
#124500
b10101 "
b10101 7
b10101 K
b10101 i
b10 d
b10101 k
b1 %
b1 :
b1 M
b1 T
b1 c
1/
#125000
0/
#125500
b11 d
b10100 "
b10100 7
b10100 K
b10100 i
b10 %
b10 :
b10 M
b10 T
b10 c
b10100 k
1/
#126000
0/
#126500
b10011 "
b10011 7
b10011 K
b10011 i
b100 d
b10011 k
b11 %
b11 :
b11 M
b11 T
b11 c
1/
#127000
0/
#127500
b101 d
b10010 "
b10010 7
b10010 K
b10010 i
b100 %
b100 :
b100 M
b100 T
b100 c
b10010 k
1/
#128000
0/
#128500
b10001 "
b10001 7
b10001 K
b10001 i
b110 d
b10001 k
b101 %
b101 :
b101 M
b101 T
b101 c
1/
#129000
0/
#129500
b111 d
b10000 "
b10000 7
b10000 K
b10000 i
b110 %
b110 :
b110 M
b110 T
b110 c
b10000 k
1/
#130000
0/
#130500
b1111 "
b1111 7
b1111 K
b1111 i
b1000 d
b1111 k
b111 %
b111 :
b111 M
b111 T
b111 c
1/
#131000
0/
#131500
b1001 d
b1110 "
b1110 7
b1110 K
b1110 i
b1000 %
b1000 :
b1000 M
b1000 T
b1000 c
b1110 k
1/
#132000
0/
#132500
b1101 "
b1101 7
b1101 K
b1101 i
b1010 d
b1101 k
b1001 %
b1001 :
b1001 M
b1001 T
b1001 c
1/
#133000
0/
#133500
b1011 d
b1100 "
b1100 7
b1100 K
b1100 i
b1010 %
b1010 :
b1010 M
b1010 T
b1010 c
b1100 k
1/
#134000
0/
#134500
b1011 "
b1011 7
b1011 K
b1011 i
b1100 d
b1011 k
b1011 %
b1011 :
b1011 M
b1011 T
b1011 c
1/
#135000
0/
#135500
b1101 d
b1010 "
b1010 7
b1010 K
b1010 i
b1100 %
b1100 :
b1100 M
b1100 T
b1100 c
b1010 k
1/
#136000
0/
#136500
b1001 "
b1001 7
b1001 K
b1001 i
b1110 d
b1001 k
b1101 %
b1101 :
b1101 M
b1101 T
b1101 c
1/
#137000
0/
#137500
b1111 d
b1000 "
b1000 7
b1000 K
b1000 i
b1110 %
b1110 :
b1110 M
b1110 T
b1110 c
b1000 k
1/
#138000
0/
#138500
b111 "
b111 7
b111 K
b111 i
b10000 d
b111 k
b1111 %
b1111 :
b1111 M
b1111 T
b1111 c
1/
#139000
0/
#139500
b10001 d
b110 "
b110 7
b110 K
b110 i
b10000 %
b10000 :
b10000 M
b10000 T
b10000 c
b110 k
1/
#140000
0/
#140500
b101 "
b101 7
b101 K
b101 i
b10010 d
b101 k
b10001 %
b10001 :
b10001 M
b10001 T
b10001 c
1/
#141000
0/
#141500
b10011 d
b100 "
b100 7
b100 K
b100 i
b10010 %
b10010 :
b10010 M
b10010 T
b10010 c
b100 k
1/
#142000
0/
#142500
b11 "
b11 7
b11 K
b11 i
b10100 d
b11 k
b10011 %
b10011 :
b10011 M
b10011 T
b10011 c
1/
#143000
0/
#143500
b10101 d
b10 "
b10 7
b10 K
b10 i
b10100 %
b10100 :
b10100 M
b10100 T
b10100 c
b10 k
1/
#144000
0/
#144500
b1 "
b1 7
b1 K
b1 i
b10110 d
b1 k
b10101 %
b10101 :
b10101 M
b10101 T
b10101 c
1/
#145000
0/
#145500
b10111 d
b0 "
b0 7
b0 K
b0 i
b10110 %
b10110 :
b10110 M
b10110 T
b10110 c
1$
b0 k
1/
#146000
0/
#146500
b11000 d
0$
b10111 %
b10111 :
b10111 M
b10111 T
b10111 c
1/
#147000
0/
#147500
b11001 d
b11000 %
b11000 :
b11000 M
b11000 T
b11000 c
1/
#148000
0/
#148500
b11010 d
b11001 %
b11001 :
b11001 M
b11001 T
b11001 c
1/
#149000
0/
#149500
b11011 d
b11010 %
b11010 :
b11010 M
b11010 T
b11010 c
1/
#150000
0/
#150500
b11100 d
b11011 %
b11011 :
b11011 M
b11011 T
b11011 c
1/
#151000
0/
#151500
b11101 d
b11100 %
b11100 :
b11100 M
b11100 T
b11100 c
1/
#152000
0/
#152500
b11110 d
b11101 %
b11101 :
b11101 M
b11101 T
b11101 c
1/
#153000
0/
#153500
b11111 d
b11110 %
b11110 :
b11110 M
b11110 T
b11110 c
1/
#154000
0/
#154500
b100000 d
b11111 %
b11111 :
b11111 M
b11111 T
b11111 c
1/
#155000
0/
#155500
b100001 d
b100000 %
b100000 :
b100000 M
b100000 T
b100000 c
1/
#156000
0/
#156500
b100010 d
b100001 %
b100001 :
b100001 M
b100001 T
b100001 c
1/
#157000
0/
#157500
b100011 d
b100010 %
b100010 :
b100010 M
b100010 T
b100010 c
1/
#158000
0/
#158500
b100100 d
b100011 %
b100011 :
b100011 M
b100011 T
b100011 c
1/
#159000
0/
#159500
b100101 d
b100100 %
b100100 :
b100100 M
b100100 T
b100100 c
1/
#160000
0/
#160500
b100110 d
b100101 %
b100101 :
b100101 M
b100101 T
b100101 c
1/
#161000
0/
#161500
b100111 d
b100110 %
b100110 :
b100110 M
b100110 T
b100110 c
1/
#162000
0/
#162500
b101000 d
b100111 %
b100111 :
b100111 M
b100111 T
b100111 c
1/
#163000
0/
#163500
b101001 d
b101000 %
b101000 :
b101000 M
b101000 T
b101000 c
1/
#164000
0/
#164500
b101010 d
b101001 %
b101001 :
b101001 M
b101001 T
b101001 c
1/
#165000
0/
#165500
b101011 d
b101010 %
b101010 :
b101010 M
b101010 T
b101010 c
1/
#166000
0/
#166500
b101100 d
b101011 %
b101011 :
b101011 M
b101011 T
b101011 c
1/
#167000
0/
#167500
b101101 d
b101100 %
b101100 :
b101100 M
b101100 T
b101100 c
1/
#168000
0/
#168500
b101110 d
b101101 %
b101101 :
b101101 M
b101101 T
b101101 c
1/
#169000
0/
#169500
b101111 d
b101110 %
b101110 :
b101110 M
b101110 T
b101110 c
1/
#170000
0/
#170500
b110000 d
b101111 %
b101111 :
b101111 M
b101111 T
b101111 c
1/
#171000
0/
#171500
b110001 d
b110000 %
b110000 :
b110000 M
b110000 T
b110000 c
1/
#172000
0/
#172500
b110010 d
b110001 %
b110001 :
b110001 M
b110001 T
b110001 c
1/
#173000
0/
#173500
b110011 d
b110010 %
b110010 :
b110010 M
b110010 T
b110010 c
1/
#174000
0/
#174500
b110100 d
b110011 %
b110011 :
b110011 M
b110011 T
b110011 c
1/
#175000
0/
#175500
b110101 d
b110100 %
b110100 :
b110100 M
b110100 T
b110100 c
1/
#176000
0/
